#
# There is insufficient memory for the Java Runtime Environment to continue.
# Native memory allocation (malloc) failed to allocate 1630736 bytes for Chunk::new
# Possible reasons:
#   The system is out of physical RAM or swap space
#   In 32 bit mode, the process size limit was hit
# Possible solutions:
#   Reduce memory load on the system
#   Increase physical memory or swap space
#   Check if swap backing store is full
#   Use 64 bit Java on a 64 bit OS
#   Decrease Java heap size (-Xmx/-Xms)
#   Decrease number of Java threads
#   Decrease Java thread stack sizes (-Xss)
#   Set larger code cache with -XX:ReservedCodeCacheSize=
# This output file may be truncated or incomplete.
#
#  Out of Memory Error (allocation.cpp:390), pid=17120, tid=0x000000000000299c
#
# JRE version: Java(TM) SE Runtime Environment (8.0_121-b13) (build 1.8.0_121-b13)
# Java VM: Java HotSpot(TM) 64-Bit Server VM (25.121-b13 mixed mode windows-amd64 compressed oops)
# Failed to write core dump. Minidumps are not enabled by default on client versions of Windows
#

---------------  T H R E A D  ---------------

Current thread (0x0000000016f70800):  JavaThread "C2 CompilerThread0" daemon [_thread_in_native, id=10652, stack(0x00000000185d0000,0x00000000186d0000)]

Stack: [0x00000000185d0000,0x00000000186d0000]
[error occurred during error reporting (printing stack bounds), id 0xc0000005]

Native frames: (J=compiled Java code, j=interpreted, Vv=VM code, C=native code)


Current CompileTask:
C2:  11529 1272       4       org.codehaus.groovy.runtime.metaclass.MetaMethodIndex::addMethodToList (290 bytes)


---------------  P R O C E S S  ---------------

Java Threads: ( => current thread )
  0x00000000188ee000 JavaThread "Service Thread" daemon [_thread_blocked, id=7900, stack(0x0000000018cd0000,0x0000000018dd0000)]
  0x0000000016f83000 JavaThread "C1 CompilerThread2" daemon [_thread_blocked, id=9796, stack(0x00000000187d0000,0x00000000188d0000)]
  0x0000000016f76800 JavaThread "C2 CompilerThread1" daemon [_thread_blocked, id=7992, stack(0x00000000186d0000,0x00000000187d0000)]
=>0x0000000016f70800 JavaThread "C2 CompilerThread0" daemon [_thread_in_native, id=10652, stack(0x00000000185d0000,0x00000000186d0000)]
  0x0000000016f6e800 JavaThread "Attach Listener" daemon [_thread_blocked, id=15972, stack(0x00000000184d0000,0x00000000185d0000)]
  0x0000000016f6d800 JavaThread "Signal Dispatcher" daemon [_thread_blocked, id=6592, stack(0x00000000183d0000,0x00000000184d0000)]
  0x00000000023db000 JavaThread "Finalizer" daemon [_thread_blocked, id=17192, stack(0x00000000181e0000,0x00000000182e0000)]
  0x00000000023d2000 JavaThread "Reference Handler" daemon [_thread_blocked, id=11840, stack(0x00000000180e0000,0x00000000181e0000)]
  0x000000000241e000 JavaThread "main" [_thread_in_native, id=16968, stack(0x00000000021b0000,0x00000000022b0000)]

Other Threads:
  0x0000000016f37000 VMThread [stack: 0x0000000017fe0000,0x00000000180e0000] [id=7924]
  0x00000000188f6000 WatcherThread [stack: 0x0000000018dd0000,0x0000000018ed0000] [id=7040]

VM state:not at safepoint (normal execution)

VM Mutex/Monitor currently owned by a thread: None

Heap:
 PSYoungGen      total 38400K, used 10722K [0x00000000d5d80000, 0x00000000d8800000, 0x0000000100000000)
  eden space 33280K, 16% used [0x00000000d5d80000,0x00000000d62fcaa0,0x00000000d7e00000)
  from space 5120K, 99% used [0x00000000d7e00000,0x00000000d82fc030,0x00000000d8300000)
  to   space 5120K, 0% used [0x00000000d8300000,0x00000000d8300000,0x00000000d8800000)
 ParOldGen       total 87552K, used 4576K [0x0000000081800000, 0x0000000086d80000, 0x00000000d5d80000)
  object space 87552K, 5% used [0x0000000081800000,0x0000000081c78188,0x0000000086d80000)
 Metaspace       used 18058K, capacity 18314K, committed 18688K, reserved 1064960K
  class space    used 2390K, capacity 2476K, committed 2560K, reserved 1048576K

Card table byte_map: [0x00000000117e0000,0x0000000011be0000] byte_map_base: 0x00000000113d4000

Marking Bits: (ParMarkBitMap*) 0x00000000624ab6d0
 Begin Bits: [0x0000000012290000, 0x0000000014230000)
 End Bits:   [0x0000000014230000, 0x00000000161d0000)

Polling page: 0x0000000000580000

CodeCache: size=245760Kb used=6236Kb max_used=6276Kb free=239523Kb
 bounds [0x0000000002420000, 0x0000000002a60000, 0x0000000011420000]
 total_blobs=1912 nmethods=1309 adapters=515
 compilation: enabled

Compilation events (10 events):
Event: 11.027 Thread 0x0000000016f76800 1284       4       java.lang.StringBuilder::append (8 bytes)
Event: 11.037 Thread 0x0000000016f70800 nmethod 1222 0x0000000002a30650 code [0x0000000002a312c0, 0x0000000002a3bf80]
Event: 11.037 Thread 0x0000000016f76800 nmethod 1284 0x0000000002a0b290 code [0x0000000002a0b400, 0x0000000002a0b848]
Event: 11.037 Thread 0x0000000016f76800 1230       4       java.lang.Class$MethodArray::removeByNameAndDescriptor (42 bytes)
Event: 11.040 Thread 0x0000000016f70800 1239       4       org.codehaus.groovy.reflection.CachedMethod::getModifiers (8 bytes)
Event: 11.040 Thread 0x0000000016f70800 nmethod 1239 0x00000000028aa0d0 code [0x00000000028aa200, 0x00000000028aa278]
Event: 11.040 Thread 0x0000000016f70800 1289       4       groovy.lang.MetaMethod::isPrivate (15 bytes)
Event: 11.041 Thread 0x0000000016f70800 nmethod 1289 0x000000000288bed0 code [0x000000000288c000, 0x000000000288c078]
Event: 11.041 Thread 0x0000000016f70800 1272       4       org.codehaus.groovy.runtime.metaclass.MetaMethodIndex::addMethodToList (290 bytes)
Event: 11.049 Thread 0x0000000016f76800 nmethod 1230 0x0000000002a0a990 code [0x0000000002a0ab00, 0x0000000002a0aec8]

GC Heap History (6 events):
Event: 3.004 GC heap before
{Heap before GC invocations=1 (full 0):
 PSYoungGen      total 38400K, used 33280K [0x00000000d5d80000, 0x00000000d8800000, 0x0000000100000000)
  eden space 33280K, 100% used [0x00000000d5d80000,0x00000000d7e00000,0x00000000d7e00000)
  from space 5120K, 0% used [0x00000000d8300000,0x00000000d8300000,0x00000000d8800000)
  to   space 5120K, 0% used [0x00000000d7e00000,0x00000000d7e00000,0x00000000d8300000)
 ParOldGen       total 87552K, used 0K [0x0000000081800000, 0x0000000086d80000, 0x00000000d5d80000)
  object space 87552K, 0% used [0x0000000081800000,0x0000000081800000,0x0000000086d80000)
 Metaspace       used 8535K, capacity 8672K, committed 8960K, reserved 1056768K
  class space    used 1127K, capacity 1184K, committed 1280K, reserved 1048576K
Event: 3.014 GC heap after
Heap after GC invocations=1 (full 0):
 PSYoungGen      total 38400K, used 5010K [0x00000000d5d80000, 0x00000000d8800000, 0x0000000100000000)
  eden space 33280K, 0% used [0x00000000d5d80000,0x00000000d5d80000,0x00000000d7e00000)
  from space 5120K, 97% used [0x00000000d7e00000,0x00000000d82e4830,0x00000000d8300000)
  to   space 5120K, 0% used [0x00000000d8300000,0x00000000d8300000,0x00000000d8800000)
 ParOldGen       total 87552K, used 8K [0x0000000081800000, 0x0000000086d80000, 0x00000000d5d80000)
  object space 87552K, 0% used [0x0000000081800000,0x0000000081802000,0x0000000086d80000)
 Metaspace       used 8535K, capacity 8672K, committed 8960K, reserved 1056768K
  class space    used 1127K, capacity 1184K, committed 1280K, reserved 1048576K
}
Event: 4.206 GC heap before
{Heap before GC invocations=2 (full 0):
 PSYoungGen      total 38400K, used 38290K [0x00000000d5d80000, 0x00000000d8800000, 0x0000000100000000)
  eden space 33280K, 100% used [0x00000000d5d80000,0x00000000d7e00000,0x00000000d7e00000)
  from space 5120K, 97% used [0x00000000d7e00000,0x00000000d82e4830,0x00000000d8300000)
  to   space 5120K, 0% used [0x00000000d8300000,0x00000000d8300000,0x00000000d8800000)
 ParOldGen       total 87552K, used 8K [0x0000000081800000, 0x0000000086d80000, 0x00000000d5d80000)
  object space 87552K, 0% used [0x0000000081800000,0x0000000081802000,0x0000000086d80000)
 Metaspace       used 11595K, capacity 11864K, committed 12032K, reserved 1058816K
  class space    used 1601K, capacity 1672K, committed 1792K, reserved 1048576K
Event: 4.219 GC heap after
Heap after GC invocations=2 (full 0):
 PSYoungGen      total 38400K, used 5100K [0x00000000d5d80000, 0x00000000d8800000, 0x0000000100000000)
  eden space 33280K, 0% used [0x00000000d5d80000,0x00000000d5d80000,0x00000000d7e00000)
  from space 5120K, 99% used [0x00000000d8300000,0x00000000d87fb0a8,0x00000000d8800000)
  to   space 5120K, 0% used [0x00000000d7e00000,0x00000000d7e00000,0x00000000d8300000)
 ParOldGen       total 87552K, used 373K [0x0000000081800000, 0x0000000086d80000, 0x00000000d5d80000)
  object space 87552K, 0% used [0x0000000081800000,0x000000008185d7a0,0x0000000086d80000)
 Metaspace       used 11595K, capacity 11864K, committed 12032K, reserved 1058816K
  class space    used 1601K, capacity 1672K, committed 1792K, reserved 1048576K
}
Event: 9.879 GC heap before
{Heap before GC invocations=3 (full 0):
 PSYoungGen      total 38400K, used 38380K [0x00000000d5d80000, 0x00000000d8800000, 0x0000000100000000)
  eden space 33280K, 100% used [0x00000000d5d80000,0x00000000d7e00000,0x00000000d7e00000)
  from space 5120K, 99% used [0x00000000d8300000,0x00000000d87fb0a8,0x00000000d8800000)
  to   space 5120K, 0% used [0x00000000d7e00000,0x00000000d7e00000,0x00000000d8300000)
 ParOldGen       total 87552K, used 373K [0x0000000081800000, 0x0000000086d80000, 0x00000000d5d80000)
  object space 87552K, 0% used [0x0000000081800000,0x000000008185d7a0,0x0000000086d80000)
 Metaspace       used 17320K, capacity 17610K, committed 17920K, reserved 1064960K
  class space    used 2372K, capacity 2476K, committed 2560K, reserved 1048576K
Event: 9.956 GC heap after
Heap after GC invocations=3 (full 0):
 PSYoungGen      total 38400K, used 5104K [0x00000000d5d80000, 0x00000000d8800000, 0x0000000100000000)
  eden space 33280K, 0% used [0x00000000d5d80000,0x00000000d5d80000,0x00000000d7e00000)
  from space 5120K, 99% used [0x00000000d7e00000,0x00000000d82fc030,0x00000000d8300000)
  to   space 5120K, 0% used [0x00000000d8300000,0x00000000d8300000,0x00000000d8800000)
 ParOldGen       total 87552K, used 4576K [0x0000000081800000, 0x0000000086d80000, 0x00000000d5d80000)
  object space 87552K, 5% used [0x0000000081800000,0x0000000081c78188,0x0000000086d80000)
 Metaspace       used 17320K, capacity 17610K, committed 17920K, reserved 1064960K
  class space    used 2372K, capacity 2476K, committed 2560K, reserved 1048576K
}

Deoptimization events (10 events):
Event: 6.441 Thread 0x000000000241e000 Uncommon trap: reason=unstable_if action=reinterpret pc=0x000000000266ea90 method=java.lang.AbstractStringBuilder.append(Ljava/lang/String;)Ljava/lang/AbstractStringBuilder; @ 1
Event: 6.441 Thread 0x000000000241e000 Uncommon trap: reason=unstable_if action=reinterpret pc=0x000000000263d950 method=java.lang.AbstractStringBuilder.append(Ljava/lang/String;)Ljava/lang/AbstractStringBuilder; @ 1
Event: 9.540 Thread 0x000000000241e000 Uncommon trap: reason=bimorphic action=maybe_recompile pc=0x0000000002779664 method=java.lang.ClassLoader.loadClass(Ljava/lang/String;Z)Ljava/lang/Class; @ 38
Event: 9.540 Thread 0x000000000241e000 Uncommon trap: reason=bimorphic action=maybe_recompile pc=0x0000000002779664 method=java.lang.ClassLoader.loadClass(Ljava/lang/String;Z)Ljava/lang/Class; @ 38
Event: 9.542 Thread 0x000000000241e000 Uncommon trap: reason=class_check action=maybe_recompile pc=0x00000000025ec870 method=sun.misc.URLClassPath.getLoader(I)Lsun/misc/URLClassPath$Loader; @ 94
Event: 9.542 Thread 0x000000000241e000 Uncommon trap: reason=class_check action=maybe_recompile pc=0x000000000283d030 method=sun.misc.URLClassPath.getResource(Ljava/lang/String;Z)Lsun/misc/Resource; @ 62
Event: 9.545 Thread 0x000000000241e000 Uncommon trap: reason=bimorphic action=maybe_recompile pc=0x0000000002779664 method=java.lang.ClassLoader.loadClass(Ljava/lang/String;Z)Ljava/lang/Class; @ 38
Event: 9.545 Thread 0x000000000241e000 Uncommon trap: reason=bimorphic action=maybe_recompile pc=0x0000000002779664 method=java.lang.ClassLoader.loadClass(Ljava/lang/String;Z)Ljava/lang/Class; @ 38
Event: 9.633 Thread 0x000000000241e000 Uncommon trap: reason=class_check action=maybe_recompile pc=0x00000000025eca10 method=sun.misc.URLClassPath.getLoader(I)Lsun/misc/URLClassPath$Loader; @ 239
Event: 9.648 Thread 0x000000000241e000 Uncommon trap: reason=class_check action=maybe_recompile pc=0x00000000025eca10 method=sun.misc.URLClassPath.getLoader(I)Lsun/misc/URLClassPath$Loader; @ 239

Internal exceptions (10 events):
Event: 9.878 Thread 0x000000000241e000 Exception <a 'java/lang/ClassNotFoundException': org/gradle/initialization/BaseSettingsBeanInfo> (0x00000000d7de23c8) thrown at [C:\re\workspace\8-2-build-windows-amd64-cygwin\jdk8u121\8372\hotspot\src\share\vm\classfile\systemDictionary.cpp, line 210]
Event: 9.957 Thread 0x000000000241e000 Exception <a 'java/lang/ClassNotFoundException': org/gradle/api/internal/project/AbstractPluginAwareBeanInfo> (0x00000000d5d82a08) thrown at [C:\re\workspace\8-2-build-windows-amd64-cygwin\jdk8u121\8372\hotspot\src\share\vm\classfile\systemDictionary.cpp,
Event: 9.958 Thread 0x000000000241e000 Exception <a 'java/lang/ClassNotFoundException': org/gradle/api/internal/project/AbstractPluginAwareCustomizer> (0x00000000d5da3790) thrown at [C:\re\workspace\8-2-build-windows-amd64-cygwin\jdk8u121\8372\hotspot\src\share\vm\classfile\systemDictionary.cp
Event: 9.960 Thread 0x000000000241e000 Exception <a 'java/lang/ClassNotFoundException': org/gradle/initialization/BaseSettingsCustomizer> (0x00000000d5dc5c08) thrown at [C:\re\workspace\8-2-build-windows-amd64-cygwin\jdk8u121\8372\hotspot\src\share\vm\classfile\systemDictionary.cpp, line 210]
Event: 9.963 Thread 0x000000000241e000 Exception <a 'java/lang/ClassNotFoundException': org/gradle/initialization/DefaultSettingsCustomizer> (0x00000000d5e08680) thrown at [C:\re\workspace\8-2-build-windows-amd64-cygwin\jdk8u121\8372\hotspot\src\share\vm\classfile\systemDictionary.cpp, line 21
Event: 9.964 Thread 0x000000000241e000 Exception <a 'java/lang/ClassNotFoundException': org/gradle/initialization/DefaultSettings_DecoratedCustomizer> (0x00000000d5e516c0) thrown at [C:\re\workspace\8-2-build-windows-amd64-cygwin\jdk8u121\8372\hotspot\src\share\vm\classfile\systemDictionary.cp
Event: 9.975 Thread 0x000000000241e000 Exception <a 'java/lang/ClassNotFoundException': org/gradle/initialization/DefaultProjectDescriptorBeanInfo> (0x00000000d5eeeb88) thrown at [C:\re\workspace\8-2-build-windows-amd64-cygwin\jdk8u121\8372\hotspot\src\share\vm\classfile\systemDictionary.cpp, 
Event: 9.976 Thread 0x000000000241e000 Exception <a 'java/lang/ClassNotFoundException': org/gradle/initialization/DefaultProjectDescriptorCustomizer> (0x00000000d5f0dc30) thrown at [C:\re\workspace\8-2-build-windows-amd64-cygwin\jdk8u121\8372\hotspot\src\share\vm\classfile\systemDictionary.cpp
Event: 10.306 Thread 0x000000000241e000 Exception <a 'java/lang/ClassNotFoundException': java/io/FileBeanInfo> (0x00000000d627d4d0) thrown at [C:\re\workspace\8-2-build-windows-amd64-cygwin\jdk8u121\8372\hotspot\src\share\vm\classfile\systemDictionary.cpp, line 210]
Event: 10.306 Thread 0x000000000241e000 Exception <a 'java/lang/ClassNotFoundException': java/io/FileCustomizer> (0x00000000d627f340) thrown at [C:\re\workspace\8-2-build-windows-amd64-cygwin\jdk8u121\8372\hotspot\src\share\vm\classfile\systemDictionary.cpp, line 210]

Events (10 events):
Event: 11.220 loading class java/lang/Character$CharacterCache
Event: 11.220 loading class java/lang/Character$CharacterCache done
Event: 11.288 loading class org/gradle/initialization/ProjectSpecs
Event: 11.288 loading class org/gradle/initialization/ProjectSpecs done
Event: 11.289 loading class org/gradle/initialization/ProjectSpec
Event: 11.289 loading class org/gradle/initialization/ProjectSpec done
Event: 11.289 loading class org/gradle/initialization/DefaultProjectSpec
Event: 11.289 loading class org/gradle/initialization/DefaultProjectSpec done
Event: 11.289 loading class org/gradle/initialization/AbstractProjectSpec
Event: 11.289 loading class org/gradle/initialization/AbstractProjectSpec done


Dynamic libraries:
0x00007ff652df0000 - 0x00007ff652e27000 	C:\Program Files\Java\jdk1.8.0_121\bin\java.exe
0x00007ffdbe3e0000 - 0x00007ffdbe5c1000 	C:\WINDOWS\SYSTEM32\ntdll.dll
0x00007ffdbdcf0000 - 0x00007ffdbdda2000 	C:\WINDOWS\System32\KERNEL32.DLL
0x00007ffdbb360000 - 0x00007ffdbb5d3000 	C:\WINDOWS\System32\KERNELBASE.dll
0x00007ffdbb910000 - 0x00007ffdbb9b1000 	C:\WINDOWS\System32\ADVAPI32.dll
0x00007ffdbc630000 - 0x00007ffdbc6ce000 	C:\WINDOWS\System32\msvcrt.dll
0x00007ffdbdf40000 - 0x00007ffdbdf9b000 	C:\WINDOWS\System32\sechost.dll
0x00007ffdbdbb0000 - 0x00007ffdbdcd4000 	C:\WINDOWS\System32\RPCRT4.dll
0x00007ffdbddb0000 - 0x00007ffdbdf40000 	C:\WINDOWS\System32\USER32.dll
0x00007ffdba940000 - 0x00007ffdba960000 	C:\WINDOWS\System32\win32u.dll
0x00007ffdbe380000 - 0x00007ffdbe3a8000 	C:\WINDOWS\System32\GDI32.dll
0x00007ffdbb5e0000 - 0x00007ffdbb772000 	C:\WINDOWS\System32\gdi32full.dll
0x00007ffdbb7d0000 - 0x00007ffdbb86f000 	C:\WINDOWS\System32\msvcp_win.dll
0x00007ffdba960000 - 0x00007ffdbaa5a000 	C:\WINDOWS\System32\ucrtbase.dll
0x00007ffdacad0000 - 0x00007ffdacd39000 	C:\WINDOWS\WinSxS\amd64_microsoft.windows.common-controls_6595b64144ccf1df_6.0.17134.407_none_fb449d63306391e9\COMCTL32.dll
0x00007ffdbc300000 - 0x00007ffdbc622000 	C:\WINDOWS\System32\combase.dll
0x00007ffdba7b0000 - 0x00007ffdba82a000 	C:\WINDOWS\System32\bcryptPrimitives.dll
0x00007ffdbdb10000 - 0x00007ffdbdb3d000 	C:\WINDOWS\System32\IMM32.DLL
0x0000000062dd0000 - 0x0000000062ea2000 	C:\Program Files\Java\jdk1.8.0_121\jre\bin\msvcr100.dll
0x0000000061c90000 - 0x000000006252b000 	C:\Program Files\Java\jdk1.8.0_121\jre\bin\server\jvm.dll
0x00007ffdbc010000 - 0x00007ffdbc018000 	C:\WINDOWS\System32\PSAPI.DLL
0x00007ffdb9320000 - 0x00007ffdb9329000 	C:\WINDOWS\SYSTEM32\WSOCK32.dll
0x00007ffdbdb40000 - 0x00007ffdbdbac000 	C:\WINDOWS\System32\WS2_32.dll
0x00007ffdb0700000 - 0x00007ffdb0723000 	C:\WINDOWS\SYSTEM32\WINMM.dll
0x00007ffdb63a0000 - 0x00007ffdb63aa000 	C:\WINDOWS\SYSTEM32\VERSION.dll
0x00007ffdaef00000 - 0x00007ffdaef2a000 	C:\WINDOWS\SYSTEM32\WINMMBASE.dll
0x00007ffdbb780000 - 0x00007ffdbb7c9000 	C:\WINDOWS\System32\cfgmgr32.dll
0x0000000062ef0000 - 0x0000000062eff000 	C:\Program Files\Java\jdk1.8.0_121\jre\bin\verify.dll
0x0000000062da0000 - 0x0000000062dc9000 	C:\Program Files\Java\jdk1.8.0_121\jre\bin\java.dll
0x0000000062ed0000 - 0x0000000062ee6000 	C:\Program Files\Java\jdk1.8.0_121\jre\bin\zip.dll
0x00007ffdbc6d0000 - 0x00007ffdbdb0f000 	C:\WINDOWS\System32\SHELL32.dll
0x00007ffdbe170000 - 0x00007ffdbe219000 	C:\WINDOWS\System32\shcore.dll
0x00007ffdbac50000 - 0x00007ffdbb35d000 	C:\WINDOWS\System32\windows.storage.dll
0x00007ffdbc020000 - 0x00007ffdbc071000 	C:\WINDOWS\System32\shlwapi.dll
0x00007ffdba740000 - 0x00007ffdba751000 	C:\WINDOWS\System32\kernel.appcore.dll
0x00007ffdba720000 - 0x00007ffdba73f000 	C:\WINDOWS\System32\profapi.dll
0x00007ffdba760000 - 0x00007ffdba7ac000 	C:\WINDOWS\System32\powrprof.dll
0x00007ffdba6f0000 - 0x00007ffdba6fa000 	C:\WINDOWS\System32\FLTLIB.DLL
0x0000000062d80000 - 0x0000000062d9a000 	C:\Program Files\Java\jdk1.8.0_121\jre\bin\net.dll
0x00007ffdb9f10000 - 0x00007ffdb9f76000 	C:\WINDOWS\system32\mswsock.dll
0x0000000062d60000 - 0x0000000062d71000 	C:\Program Files\Java\jdk1.8.0_121\jre\bin\nio.dll
0x00007ffdb65a0000 - 0x00007ffdb65b2000 	C:\Users\livsp\.gradle\native\19\windows-amd64\native-platform.dll
0x0000000180000000 - 0x0000000180037000 	C:\Users\livsp\.gradle\native\jna\win32-amd64\jnidispatch.dll
0x00007ffdba0d0000 - 0x00007ffdba0e7000 	C:\WINDOWS\SYSTEM32\CRYPTSP.dll
0x00007ffdb9af0000 - 0x00007ffdb9b23000 	C:\WINDOWS\system32\rsaenh.dll
0x00007ffdba250000 - 0x00007ffdba275000 	C:\WINDOWS\SYSTEM32\bcrypt.dll
0x00007ffdba620000 - 0x00007ffdba648000 	C:\WINDOWS\SYSTEM32\USERENV.dll
0x00007ffdba0c0000 - 0x00007ffdba0cb000 	C:\WINDOWS\SYSTEM32\CRYPTBASE.dll
0x00007ffdb9c90000 - 0x00007ffdb9cc8000 	C:\WINDOWS\SYSTEM32\IPHLPAPI.DLL
0x00007ffdbdce0000 - 0x00007ffdbdce8000 	C:\WINDOWS\System32\NSI.dll
0x00007ffdb3a20000 - 0x00007ffdb3a36000 	C:\WINDOWS\SYSTEM32\dhcpcsvc6.DLL
0x00007ffdb37e0000 - 0x00007ffdb37fa000 	C:\WINDOWS\SYSTEM32\dhcpcsvc.DLL
0x0000000062d50000 - 0x0000000062d5d000 	C:\Program Files\Java\jdk1.8.0_121\jre\bin\management.dll

VM Arguments:
jvm_args: -Dorg.gradle.appname=gradlew 
java_command: org.gradle.wrapper.GradleWrapperMain installDebug
java_class_path (initial): C:\Users\livsp\Desktop\App\TestBLE\android\\gradle\wrapper\gradle-wrapper.jar
Launcher Type: SUN_STANDARD

Environment Variables:
JAVA_HOME=C:\Program Files\Java\jdk1.8.0_121
CLASSPATH=C:\Users\livsp\Desktop\App\TestBLE\android\\gradle\wrapper\gradle-wrapper.jar
PATH=C:\ProgramData\Oracle\Java\javapath;C:\WINDOWS\system32;C:\WINDOWS;C:\WINDOWS\System32\Wbem;C:\WINDOWS\System32\WindowsPowerShell\v1.0\;C:\Program Files (x86)\Windows Kits\10\Windows Performance Toolkit\;C:\Program Files\Java\jdk1.8.0_121\bin;C:\WINDOWS\system32\config\systemprofile\.dnx\bin;C:\Program Files\Microsoft DNX\Dnvm\;C:\Program Files\Microsoft SQL Server\130\Tools\Binn\;C:\Program Files\Git\cmd;C:\Program Files\MySQL\MySQL Utilities 1.6\;C:\Program Files\nodejs\;C:\Program Files\Java\jre1.8.0_151;C:\Program Files\Java\jdk1.8.0_121\lib;C:\Users\livsp\AppData\Local\Android\Sdk\tools;C:\Users\livsp\AppData\Local\Android\Sdk\platform-tools;;C:\WINDOWS\System32\OpenSSH\;C:\Users\livsp\AppData\Local\Microsoft\WindowsApps;C:\Users\livsp\AppData\Roaming\npm;C:\Program Files\Microsoft VS Code\bin;C:\Users\livsp\AppData\Local\Android\Sdk\platform-tools;C:\Users\livsp\AppData\Local\Yarn\bin;C:\Program Files\MongoDB\Server\3.6\bin;C:\Program Files\heroku\bin;
USERNAME=livsp
OS=Windows_NT
PROCESSOR_IDENTIFIER=Intel64 Family 6 Model 61 Stepping 4, GenuineIntel



---------------  S Y S T E M  ---------------

OS: Windows 10.0 , 64 bit Build 17134 (10.0.17134.1)

CPU:total 4 (2 cores per cpu, 2 threads per core) family 6 model 61 stepping 4, cmov, cx8, fxsr, mmx, sse, sse2, sse3, ssse3, sse4.1, sse4.2, popcnt, avx, avx2, aes, clmul, erms, 3dnowpref, lzcnt, ht, tsc, tscinvbit, bmi1, bmi2, adx

Memory: 4k page, physical 8285576k(1992272k free), swap 10382728k(6028k free)

vm_info: Java HotSpot(TM) 64-Bit Server VM (25.121-b13) for windows-amd64 JRE (1.8.0_121-b13), built on Dec 12 2016 18:21:36 by "java_re" with MS VC++ 10.0 (VS2010)

time: Fri Nov 23 15:50:50 2018
elapsed time: 11 seconds (0d 0h 0m 11s)

